{
  "name": "Result",
  "plural": "Results",
  "base": "PersistedModel",
  "idInjection": true,
  "options": {
    "validateUpsert": true
  },
  "properties": {
    "challenging_team": {
      "type": "string",
      "required": true
    },
    "defending_team": {
      "type": "string",
      "required": true
    },
    "ct_score": {
      "type": "number"
    },
    "dt_score": {
      "type": "number"
    },
    "sport": {
      "type": "string",
      "required": true
    }
  },
  "validations": [],
  "relations": {},
  "acls": [],
  "methods": {}
}
